<?xml version="1.0" encoding="UTF-8"?>
<svg width="364px" height="134px" viewBox="0 0 364 134" version="1.1" xmlns="http://www.w3.org/2000/svg" xmlns:xlink="http://www.w3.org/1999/xlink">
    <!-- Generator: Sketch 52.2 (67145) - http://www.bohemiancoding.com/sketch -->
    <title>press-header</title>
    <desc>Created with Sketch.</desc>
    <g id="Page-1" stroke="none" stroke-width="1" fill="none" fill-rule="evenodd">
        <g id="press-page-v1" transform="translate(-615.000000, -78.000000)">
            <g id="press-header" transform="translate(617.000000, 80.000000)">
                <polygon id="Fill-1" fill="#E24329" points="153.367707 115.524689 153.367707 115.524689 163.847048 83.6094191 142.888365 83.6094191"></polygon>
                <polygon id="Fill-2" fill="#FC6D26" points="153.359838 115.525228 142.880497 83.6094191 128.206725 83.6094191"></polygon>
                <g id="Group-99" transform="translate(0.000000, 0.516763)">
                    <path d="M128.202036,83.1031743 L125.013234,92.8008506 C124.724371,93.6806432 125.036407,94.6526763 125.798982,95.201805 L153.35515,115.018983 L128.202036,83.1031743 Z" id="Fill-3" fill="#FCA326"></path>
                    <path d="M128.205701,83.1031743 L142.89079,83.1031743 L136.57085,63.8804357 C136.247497,62.8970747 134.838216,62.8970747 134.503006,63.8804357 L128.205701,83.1031743 Z" id="Fill-5" fill="#E24329"></path>
                    <polygon id="Fill-7" fill="#FC6D26" points="153.367707 115.008465 163.847048 83.0926556 178.532138 83.0926556"></polygon>
                    <path d="M178.52179,83.1031743 L181.710593,92.8008506 C181.999455,93.6806432 181.687419,94.6526763 180.924844,95.201805 L153.368677,115.007656 L178.52179,83.1031743 Z" id="Fill-9" fill="#FCA326"></path>
                    <path d="M178.529713,83.1031743 L163.844623,83.1031743 L170.152707,63.8804357 C170.476599,62.8970747 171.88588,62.8970747 172.22109,63.8804357 L178.529713,83.1031743 Z" id="Fill-11" fill="#E24329"></path>
                    <polygon id="Stroke-13" stroke="#251B3F" stroke-width="4" stroke-linecap="round" stroke-linejoin="round" points="153.367707 115.007925 153.367707 115.007925 163.847048 83.0926556 142.888365 83.0926556"></polygon>
                    <polygon id="Stroke-15" stroke="#251B3F" stroke-width="4" stroke-linecap="round" stroke-linejoin="round" points="153.359838 115.008465 142.880497 83.0926556 128.206725 83.0926556"></polygon>
                    <path d="M128.202036,83.1031743 L125.013234,92.8008506 C124.724371,93.6806432 125.036407,94.6526763 125.798982,95.201805 L153.35515,115.018983 L128.202036,83.1031743 Z" id="Stroke-17" stroke="#251B3F" stroke-width="4" stroke-linecap="round" stroke-linejoin="round"></path>
                    <path d="M128.205701,83.1031743 L142.89079,83.1031743 L136.57085,63.8804357 C136.247497,62.8970747 134.838216,62.8970747 134.503006,63.8804357 L128.205701,83.1031743 Z" id="Stroke-19" stroke="#251B3F" stroke-width="4" stroke-linecap="round" stroke-linejoin="round"></path>
                    <polygon id="Stroke-21" stroke="#251B3F" stroke-width="4" stroke-linecap="round" stroke-linejoin="round" points="153.367707 115.008465 163.847048 83.0926556 178.532138 83.0926556"></polygon>
                    <path d="M178.52179,83.1031743 L181.710593,92.8008506 C181.999455,93.6806432 181.687419,94.6526763 180.924844,95.201805 L153.368677,115.007656 L178.52179,83.1031743 Z" id="Stroke-23" stroke="#251B3F" stroke-width="4" stroke-linecap="round" stroke-linejoin="round"></path>
                    <path d="M178.529713,83.1031743 L163.844623,83.1031743 L170.152707,63.8804357 C170.476599,62.8970747 171.88588,62.8970747 172.22109,63.8804357 L178.529713,83.1031743 Z" id="Stroke-25" stroke="#251B3F" stroke-width="4" stroke-linecap="round" stroke-linejoin="round"></path>
                    <path d="M241.403066,129.460581 L239.247377,129.460581 L239.247377,30.2074689 L248.947976,30.2074689 C250.733425,30.2074689 252.181509,31.656888 252.181509,33.4439834 L252.181509,118.672199 C252.181509,124.630622 247.356,129.460581 241.403066,129.460581" id="Fill-27" fill="#3D3663"></path>
                    <path d="M241.403066,129.460581 L239.247377,129.460581 L239.247377,30.2074689 L248.947976,30.2074689 C250.733425,30.2074689 252.181509,31.656888 252.181509,33.4439834 L252.181509,118.672199 C252.181509,124.630622 247.356,129.460581 241.403066,129.460581 Z" id="Stroke-29" stroke="#251B3F" stroke-width="4" stroke-linecap="round" stroke-linejoin="round"></path>
                    <path d="M239.247377,129.460581 L110.983904,129.460581 C109.198455,129.460581 107.750371,128.011162 107.750371,126.224066 L107.750371,20.4979253 C107.750371,18.7108299 109.198455,17.2614108 110.983904,17.2614108 L236.013844,17.2614108 C237.799293,17.2614108 239.247377,18.7108299 239.247377,20.4979253 L239.247377,129.460581 Z" id="Stroke-31" stroke="#251B3F" stroke-width="4" stroke-linecap="round" stroke-linejoin="round"></path>
                    <path d="M198.430329,93.2463029 L222.125659,93.2463029" id="Stroke-33" stroke-opacity="0.3" stroke="#000000" stroke-width="4" stroke-linecap="round" stroke-linejoin="round"></path>
                    <path d="M198.430329,70.8751369 L222.125659,70.8751369" id="Stroke-35" stroke-opacity="0.3" stroke="#000000" stroke-width="4" stroke-linecap="round" stroke-linejoin="round"></path>
                    <path d="M198.430329,82.0606929 L222.125659,82.0606929" id="Stroke-37" stroke-opacity="0.3" stroke="#000000" stroke-width="4" stroke-linecap="round" stroke-linejoin="round"></path>
                    <path d="M198.430329,104.43132 L207.225,104.43132" id="Stroke-39" stroke-opacity="0.3" stroke="#000000" stroke-width="4" stroke-linecap="round" stroke-linejoin="round"></path>
                    <path d="M123.116497,31.5981452 C123.116497,30.619639 123.632784,30.1028755 124.610389,30.1028755 L126.728892,30.1028755 C127.571228,30.1028755 128.113922,30.4017137 128.521347,31.1088921 L133.302126,39.1834564 C134.063084,40.4608008 134.931826,42.499805 134.931826,42.499805 L134.985719,42.499805 C134.985719,42.499805 134.768533,40.4063195 134.768533,39.1834564 L134.768533,31.5981452 C134.768533,30.619639 135.28482,30.1028755 136.262964,30.1028755 L138.028473,30.1028755 C139.006078,30.1028755 139.521826,30.619639 139.521826,31.5981452 L139.521826,48.0455726 C139.521826,49.0246183 139.006078,49.5413817 138.028473,49.5413817 L135.909431,49.5413817 C135.09512,49.5413817 134.551886,49.2420041 134.143922,48.5348257 L129.336737,40.4877718 C128.576317,39.209888 127.707036,37.1714232 127.707036,37.1714232 L127.652605,37.1714232 C127.652605,37.1714232 127.86979,39.2649087 127.86979,40.4877718 L127.86979,48.0455726 C127.86979,49.0246183 127.353503,49.5413817 126.375898,49.5413817 L124.610389,49.5413817 C123.632784,49.5413817 123.116497,49.0246183 123.116497,48.0455726 L123.116497,31.5981452 Z" id="Fill-41" fill="#251B3F"></path>
                    <path d="M144.473389,31.5981452 C144.473389,30.619639 144.989677,30.1028755 145.967281,30.1028755 L155.148359,30.1028755 C156.125425,30.1028755 156.641713,30.619639 156.641713,31.5981452 L156.641713,32.6856141 C156.641713,33.6641203 156.125425,34.1808838 155.148359,34.1808838 L149.226683,34.1808838 L149.226683,37.7151577 L153.653928,37.7151577 C154.632072,37.7151577 155.148359,38.2313817 155.148359,39.209888 L155.148359,40.2978963 C155.148359,41.2764025 154.632072,41.7926266 153.653928,41.7926266 L149.226683,41.7926266 L149.226683,45.4633734 L155.528299,45.4633734 C156.505904,45.4633734 157.022192,45.9795975 157.022192,46.9586432 L157.022192,48.0455726 C157.022192,49.0246183 156.505904,49.5413817 155.528299,49.5413817 L145.967281,49.5413817 C144.989677,49.5413817 144.473389,49.0246183 144.473389,48.0455726 L144.473389,31.5981452 Z" id="Fill-43" fill="#251B3F"></path>
                    <path d="M159.559006,31.7609419 C159.314874,30.7279544 159.803677,30.1027676 160.862659,30.1027676 L162.791461,30.1027676 C163.687689,30.1027676 164.230922,30.5375394 164.420623,31.4351328 L166.594096,42.2553402 C166.838228,43.4517718 166.838228,44.293805 166.838228,44.293805 L166.892659,44.293805 C166.892659,44.293805 166.919605,43.4517718 167.218707,42.2553402 L169.880443,31.4081618 C170.098168,30.5375394 170.640862,30.1027676 171.537629,30.1027676 L172.705473,30.1027676 C173.601701,30.1027676 174.144395,30.5375394 174.335174,31.4081618 L176.942479,42.2553402 C177.241581,43.4517718 177.267988,44.293805 177.267988,44.293805 L177.322958,44.293805 C177.322958,44.293805 177.322958,43.4517718 177.56709,42.2553402 L179.930263,31.4081618 C180.119964,30.5375394 180.663737,30.1027676 181.58691,30.1027676 L183.434335,30.1027676 C184.493317,30.1027676 184.98212,30.7279544 184.737988,31.7609419 L180.554874,48.26339 C180.337689,49.133473 179.794455,49.5412739 178.898228,49.5412739 L176.263437,49.5412739 C175.36721,49.5412739 174.823976,49.1059627 174.60679,48.2364191 L172.487749,39.727083 C172.189186,38.4761701 172.107808,37.4431826 172.107808,37.4431826 L172.053377,37.4431826 C172.053377,37.4431826 171.972,38.4761701 171.673437,39.727083 L169.554395,48.2364191 C169.33721,49.1059627 168.793976,49.5412739 167.897749,49.5412739 L165.208527,49.5412739 C164.312299,49.5412739 163.769066,49.1059627 163.55188,48.2364191 L159.559006,31.7609419 Z" id="Fill-45" fill="#251B3F"></path>
                    <path d="M187.435078,45.8711743 L188.276874,44.6472324 C188.820108,43.8596805 189.444719,43.8046598 190.341485,44.2939129 C190.966096,44.6208008 192.188371,45.4903444 193.871964,45.4903444 C195.284479,45.4903444 195.936575,44.892668 195.936575,44.1310083 C195.936575,41.3853651 187.353701,41.8201369 187.353701,35.7300954 C187.353701,32.1418797 190.341485,29.776527 194.279928,29.776527 C196.53424,29.776527 198.598311,30.5651577 199.522024,31.2173154 C200.309928,31.7885602 200.391305,32.4676888 199.98388,33.2563195 L199.331784,34.5342033 C198.788551,35.5941618 198.055078,35.4312573 197.294659,35.0504274 C196.398431,34.6156556 195.502204,34.1533734 194.225497,34.1533734 C192.731605,34.1533734 192.106994,34.7515892 192.106994,35.513249 C192.106994,38.3403444 200.689868,37.6606763 200.689868,43.8046598 C200.689868,47.0676058 198.245856,49.8671909 193.871964,49.8671909 C191.156335,49.8671909 188.738731,48.752751 187.706695,47.9371494 C187.135976,47.4754066 186.728551,46.8766515 187.435078,45.8711743" id="Fill-47" fill="#251B3F"></path>
                    <path d="M322.133497,0.0847966805 L281.390982,0.0847966805 C279.248228,0.0847966805 277.510743,1.82388382 277.510743,3.96861411 L277.510743,30.1843817 C277.510743,32.329112 279.248228,34.0681992 281.390982,34.0681992 L286.899844,34.0681992 L293.274216,40.4484481 L299.648587,34.0681992 L322.133497,34.0681992 C324.27679,34.0681992 326.013737,32.329112 326.013737,30.1843817 L326.013737,3.96861411 C326.013737,1.82388382 324.27679,0.0847966805 322.133497,0.0847966805 Z" id="Stroke-49" stroke="#251B3F" stroke-width="4" stroke-linecap="round" stroke-linejoin="round"></path>
                    <path d="M285.998874,12.7068797 L305.400072,12.7068797" id="Stroke-51" stroke="#FCA326" stroke-width="4" stroke-linecap="round" stroke-linejoin="round"></path>
                    <path d="M285.998874,21.4455768 L295.699473,21.4455768" id="Stroke-53" stroke-opacity="0.3" stroke="#000000" stroke-width="4" stroke-linecap="round" stroke-linejoin="round"></path>
                    <path d="M315.343293,19.5038838 L356.085808,19.5038838 C358.228563,19.5038838 359.966048,21.242971 359.966048,23.3877012 L359.966048,49.6034689 C359.966048,51.7481992 358.228563,53.4872863 356.085808,53.4872863 L350.576946,53.4872863 L344.202575,59.8675353 L337.828204,53.4872863 L315.343293,53.4872863 C313.2,53.4872863 311.463054,51.7481992 311.463054,49.6034689 L311.463054,23.3877012 C311.463054,21.242971 313.2,19.5038838 315.343293,19.5038838 Z" id="Stroke-55" stroke="#251B3F" stroke-width="4" stroke-linecap="round" stroke-linejoin="round"></path>
                    <path d="M351.477916,40.8646639 L332.076719,40.8646639" id="Stroke-57" stroke="#FC6D26" stroke-width="4" stroke-linecap="round" stroke-linejoin="round"></path>
                    <path d="M351.477916,32.1259668 L341.777317,32.1259668" id="Stroke-59" stroke-opacity="0.3" stroke="#000000" stroke-width="4" stroke-linecap="round" stroke-linejoin="round"></path>
                    <path d="M274.81624,92.2406639 L282.770731,92.2406639" id="Stroke-61" stroke="#FC6D26" stroke-width="4" stroke-linecap="round" stroke-linejoin="round"></path>
                    <path d="M292.191198,92.2406639 L317.570659,92.2406639" id="Stroke-63" stroke-opacity="0.3" stroke="#000000" stroke-width="4" stroke-linecap="round" stroke-linejoin="round"></path>
                    <path d="M292.406443,107.732618 L341.729138,107.732618" id="Stroke-65" stroke-opacity="0.3" stroke="#251B3F" stroke-width="4" stroke-linecap="round" stroke-linejoin="round"></path>
                    <path d="M10.5790958,59.8586888 L23.3752635,54.4218838 L14.7670599,34.1235436 L1.97089222,39.5603485 C0.327179641,40.2588963 -0.439706587,42.1587303 0.258197605,43.8039585 L6.33939521,58.1438755 C7.0372994,59.7896432 8.93484431,60.5572365 10.5790958,59.8586888 Z" id="Stroke-69" stroke="#251B3F" stroke-width="4" stroke-linecap="round" stroke-linejoin="round"></path>
                    <polygon id="Fill-71" fill="#E24329" points="23.3753713 54.4217759 32.3888443 50.5924398 23.7806407 30.2940996 14.7671677 34.1234357"></polygon>
                    <polygon id="Stroke-73" stroke="#251B3F" stroke-width="4" stroke-linecap="round" stroke-linejoin="round" points="23.3753713 54.4217759 32.3888443 50.5924398 23.7806407 30.2940996 14.7671677 34.1234357"></polygon>
                    <path d="M25.1137186,72.315332 L31.2207844,69.7207261 C32.3686886,69.2330913 32.7750359,67.8101037 32.0582695,66.7895228 L23.3751557,54.421722 L16.6154551,57.2935892 L22.5457545,71.2769502 C22.9688084,72.2737967 24.1177904,72.7382365 25.1137186,72.315332" id="Fill-75" fill="#3D3663"></path>
                    <path d="M25.1137186,72.315332 L31.2207844,69.7207261 C32.3686886,69.2330913 32.7750359,67.8101037 32.0582695,66.7895228 L23.3751557,54.421722 L16.6154551,57.2935892 L22.5457545,71.2769502 C22.9688084,72.2737967 24.1177904,72.7382365 25.1137186,72.315332 Z" id="Stroke-77" stroke="#251B3F" stroke-width="4" stroke-linecap="round" stroke-linejoin="round"></path>
                    <path d="M32.3886287,50.5926556 L54.4817425,51.970332 C56.881024,52.119751 58.5985689,49.6902075 57.6597665,47.4753527 L43.5755749,14.2643983 C42.6362335,12.0495436 39.6969521,11.5985892 38.1378503,13.4293776 L23.7804251,30.2943154 L32.3886287,50.5926556 Z" id="Stroke-81" stroke="#251B3F" stroke-width="4" stroke-linecap="round" stroke-linejoin="round"></path>
                    <path d="M61.8835689,26.0833402 L75.403509,20.3390664" id="Stroke-83" stroke-opacity="0.3" stroke="#000000" stroke-width="4" stroke-linecap="round" stroke-linejoin="round"></path>
                    <path d="M63.6608802,32.7813071 L70.5989641,34.0920954" id="Stroke-85" stroke="#251B3F" stroke-width="4" stroke-linecap="round" stroke-linejoin="round"></path>
                    <path d="M58.3042635,20.1507552 L62.1818084,14.2446556" id="Stroke-87" stroke="#251B3F" stroke-width="4" stroke-linecap="round" stroke-linejoin="round"></path>
                    <path d="M62.1593353,39.274888 L80.4616707,44.8077095" id="Stroke-89" stroke-opacity="0.3" stroke="#000000" stroke-width="4" stroke-linecap="round" stroke-linejoin="round"></path>
                    <path d="M52.5950299,16.7209129 L61.3325749,0.0226556017" id="Stroke-91" stroke-opacity="0.3" stroke="#000000" stroke-width="4" stroke-linecap="round" stroke-linejoin="round"></path>
                    <path d="M13.2447665,92.1221535 L76.5794371,92.1221535" id="Stroke-93" stroke="#251B3F" stroke-width="4" stroke-linecap="round" stroke-linejoin="round"></path>
                    <path d="M37.281018,108.002867 L70.0043713,108.002867" id="Stroke-95" stroke-opacity="0.3" stroke="#000000" stroke-width="4" stroke-linecap="round" stroke-linejoin="round"></path>
                    <path d="M80.028,108.002867 L88.8232096,108.002867" id="Stroke-97" stroke="#FC6D26" stroke-width="4" stroke-linecap="round" stroke-linejoin="round"></path>
                </g>
            </g>
        </g>
    </g>
</svg>